…
```r
diamonds %>% 
  count(x)
```

```
## # A tibble: 554 × 2
##        x     n
##    <dbl> <int>
## 1   0.00     8
## 2   3.73     2
## 3   3.74     1
## 4   3.76     1
## 5   3.77     1
## 6   3.79     2
## 7   3.81     3
## 8   3.82     2
## 9   3.83     3
## 10  3.84     4
## # ... with 544 more rows
```
…
