…
```r
diamonds %>% 
  count(x)
```

```
## # A tibble: 554 × 2
##        x     n
##    <dbl> <int>
## 1   0.00     8
## 2   3.73     2
## 3   3.74     1
## 4   3.76     1
## 5   3.77     1
## 6   3.79     2
## 7   3.81     3
## 8   3.82     2
## 9   3.83     3
## 10  3.84     4
## # ... with 544 more rows
```
…
```r
diamonds %>% 
  filter(carat>=0.9 & carat<=1.1)%>%
  count(carat)
```

```
## # A tibble: 21 × 2
##    carat     n
##    <dbl> <int>
## 1   0.90  1485
## 2   0.91   570
## 3   0.92   226
## 4   0.93   142
## 5   0.94    59
## 6   0.95    65
## 7   0.96   103
## 8   0.97    59
## 9   0.98    31
## 10  0.99    23
## # ... with 11 more rows
```
…
